…
```
## # A tibble: 92,368 x 38
##     year unitid ftpt      fips    cohort_rev_6yr exclusions_6yr cohort_adj_6yr
##    <dbl>  <dbl> <chr>     <chr>   <lgl>          <lgl>          <lgl>         
##  1  2017 100654 Part-time Alabama NA             NA             NA            
##  2  2017 100654 Full-time Alabama NA             NA             NA            
##  3  2017 100654 Full-time Alabama NA             NA             NA            
##  4  2017 100654 Part-time Alabama NA             NA             NA            
##  5  2017 100654 Full-time Alabama NA             NA             NA            
##  6  2017 100654 Total     Alabama NA             NA             NA            
##  7  2017 100654 Part-time Alabama NA             NA             NA            
##  8  2017 100654 Total     Alabama NA             NA             NA            
##  9  2017 100654 Part-time Alabama NA             NA             NA            
## 10  2017 100654 Full-time Alabama NA             NA             NA            
## # … with 92,358 more rows, and 31 more variables: completers_6yr <dbl>,
## #   completion_rate_6yr <dbl>, exclusions_add_8yr <lgl>, cohort_adj_8yr <lgl>,
## #   completers_8yr <dbl>, still_enroll_8yr <dbl>, transfer_8yr <dbl>,
## #   unknown_8yr <dbl>, no_award_8yr <dbl>, completion_rate_8yr <dbl>,
## #   still_enroll_transfer_rate_8yr <dbl>, still_enroll_rate_8yr <dbl>,
## #   transfer_rate_8yr <dbl>, class_level <chr>, cohort_year <dbl>,
## #   fed_aid_type <chr>, cohort_rev <dbl>, exclusions <dbl>, cohort_adj <dbl>,
## #   award_cert_4yr <dbl>, award_assoc_4yr <dbl>, award_bach_4yr <dbl>,
## #   completers_4yr <dbl>, completion_rate_4yr <dbl>, award_cert_6yr <dbl>,
…
```r
# us_counties from urbnmapr
us_counties <- get_urbn_map("counties", sf = TRUE)

# scorecard data
sc <- read_csv('../data/2019_College_Scorecard_Valid_Admissions_Data.csv')
sc
```

```
## # A tibble: 1,933 x 2,392
##       X1 UNITID  OPEID OPEID6 INSTNM   CITY   STABBR ZIP   ACCREDAGENCY  INSTURL
##    <dbl>  <dbl>  <dbl>  <dbl> <chr>    <chr>  <chr>  <chr> <chr>         <chr>  
##  1     0 100654 100200   1002 Alabama… Normal AL     35762 Southern Ass… www.aa…
##  2     1 100663 105200   1052 Univers… Birmi… AL     3529… Southern Ass… https:…
##  3     3 100706 105500   1055 Univers… Hunts… AL     35899 Southern Ass… www.ua…
##  4     4 100724 100500   1005 Alabama… Montg… AL     3610… Southern Ass… www.al…
##  5     5 100751 105100   1051 The Uni… Tusca… AL     3548… Southern Ass… www.ua…
##  6     7 100830 831000   8310 Auburn … Montg… AL     3611… Southern Ass… www.au…
##  7     8 100858 100900   1009 Auburn … Auburn AL     36849 Southern Ass… www.au…
##  8     9 100937 101200   1012 Birming… Birmi… AL     35254 Southern Ass… www.bs…
##  9    10 101189 100300   1003 Faulkne… Montg… AL     3610… Southern Ass… www.fa…
## 10    13 101365 962107   9621 Herzing… Birmi… AL     35209 Higher Learn… https:…
## # … with 1,923 more rows, and 2,382 more variables: NPCURL <chr>,
## #   SCH_DEG <lgl>, HCM2 <dbl>, MAIN <dbl>, NUMBRANCH <dbl>, PREDDEG <dbl>,
## #   HIGHDEG <dbl>, CONTROL <dbl>, ST_FIPS <dbl>, REGION <dbl>, LOCALE <dbl>,
## #   LOCALE2 <lgl>, LATITUDE <dbl>, LONGITUDE <dbl>, CCBASIC <dbl>,
## #   CCUGPROF <dbl>, CCSIZSET <dbl>, HBCU <dbl>, PBI <dbl>, ANNHI <dbl>,
## #   TRIBAL <dbl>, AANAPII <dbl>, HSI <dbl>, NANTI <dbl>, MENONLY <dbl>,
## #   WOMENONLY <dbl>, RELAFFIL <dbl>, ADM_RATE <dbl>, ADM_RATE_ALL <dbl>,
## #   SATVR25 <dbl>, SATVR75 <dbl>, SATMT25 <dbl>, SATMT75 <dbl>, SATWR25 <lgl>,
## #   SATWR75 <lgl>, SATVRMID <dbl>, SATMTMID <dbl>, SATWRMID <lgl>,
…
```r
usda_pv <- read_xls(tf, sheet = 1, skip = 4)
usda_pv
```

```
## # A tibble: 3,193 x 34
##    FIPStxt Stabr Area_name  `Rural-urban_Con… Urban_Influence… `Rural-urban_Con…
##    <chr>   <chr> <chr>                  <dbl>            <dbl>             <dbl>
##  1 00000   US    United St…                NA               NA                NA
##  2 01000   AL    Alabama                   NA               NA                NA
##  3 01001   AL    Autauga C…                 2                2                 2
##  4 01003   AL    Baldwin C…                 4                5                 3
##  5 01005   AL    Barbour C…                 6                6                 6
##  6 01007   AL    Bibb Coun…                 1                1                 1
##  7 01009   AL    Blount Co…                 1                1                 1
##  8 01011   AL    Bullock C…                 6                6                 6
##  9 01013   AL    Butler Co…                 6                6                 6
## 10 01015   AL    Calhoun C…                 3                2                 3
## # … with 3,183 more rows, and 28 more variables:
## #   Urban_Influence_Code_2013 <dbl>, POVALL_2019 <dbl>, CI90LBALL_2019 <dbl>,
## #   CI90UBALL_2019 <dbl>, PCTPOVALL_2019 <dbl>, CI90LBALLP_2019 <dbl>,
## #   CI90UBALLP_2019 <dbl>, POV017_2019 <dbl>, CI90LB017_2019 <dbl>,
## #   CI90UB017_2019 <dbl>, PCTPOV017_2019 <dbl>, CI90LB017P_2019 <dbl>,
## #   CI90UB017P_2019 <dbl>, POV517_2019 <dbl>, CI90LB517_2019 <dbl>,
## #   CI90UB517_2019 <dbl>, PCTPOV517_2019 <dbl>, CI90LB517P_2019 <dbl>,
## #   CI90UB517P_2019 <dbl>, MEDHHINC_2019 <dbl>, CI90LBINC_2019 <dbl>,
## #   CI90UBINC_2019 <dbl>, POV04_2019 <dbl>, CI90LB04_2019 <dbl>,
…
